[{"page": 1, "pages": 325, "per_page": 50, "total": 16226, "sourceid": "2", "sourcename": "World Development Indicators", "lastupdated": "2022-02-15"}, [{"indicator": {"id": "SH.XPD.CHEX.PC.CD", "value": "Current health expenditure per capita (current US$)"}, "country": {"id": "ZH", "value": "Africa Eastern and Southern"}, "countryiso3code": "AFE", "date": "2020", "value": null, "unit": "", "obs_status": "", "decimal": 2}, {"indicator": {"id": "SH.XPD.CHEX.PC.CD", "value": "Current health expenditure per capita (current US$)"}, "country": {"id": "ZH", "value": "Africa Eastern and Southern"}, "countryiso3code": "AFE", "date": "2019", "value": 91.970113074856, "unit": "", "obs_status": "", "decimal": 2}, {"indicator": {"id": "SH.XPD.CHEX.PC.CD", "value": "Current health expenditure per capita (current US$)"}, "country": {"id": "ZH", "value": "Africa Eastern and Southern"}, "countryiso3code": "AFE", "date": "2018", "value": 96.2894798016145, "unit": "", "obs_status": "", "decimal": 2}, {"indicator": {"id": "SH.XPD.CHEX.PC.CD", "value": "Current health expenditure per capita (current US$)"}, "country": {"id": "ZH", "value": "Africa Eastern and Southern"}, "countryiso3code": "AFE", "date": "2017", "value": 102.410660763117, "unit": "", "obs_status": "", "decimal": 2}, {"indicator": {"id": "SH.XPD.CHEX.PC.CD", "value": "Current health expenditure per capita (current US$)"}, "country": {"id": "ZH", "value": "Africa Eastern and Southern"}, "countryiso3code": "AFE", "date": "2016", "value": 94.7391592780722, "unit": "", "obs_status": "", "decimal": 2}, {"indicator": {"id": "SH.XPD.CHEX.PC.CD", "value": "Current health expenditure per capita (current US$)"}, "country": {"id": "ZH", "value": "Africa Eastern and Southern"}, "countryiso3code": "AFE", "date": "2015", "value": 99.0085057999811, "unit": "", "obs_status": "", "decimal": 2}, {"indicator": {"id": "SH.XPD.CHEX.PC.CD", "value": "Current health expenditure per capita (current US$)"}, "country": {"id": "ZH", "value": "Africa Eastern and Southern"}, "countryiso3code": "AFE", "date": "2014", "value": 104.541256889379, "unit": "", "obs_status": "", "decimal": 2}, {"indicator": {"id": "SH.XPD.CHEX.PC.CD", "value": "Current health expenditure per capita (current US$)"}, "country": {"id": "ZH", "value": "Africa Eastern and Southern"}, "countryiso3code": "AFE", "date": "2013", "value": 111.227694719127, "unit": "", "obs_status": "", "decimal": 2}, {"indicator": {"id": "SH.XPD.CHEX.PC.CD", "value": "Current health expenditure per capita (current US$)"}, "country": {"id": "ZH", "value": "Africa Eastern and Southern"}, "countryiso3code": "AFE", "date": "2012", "value": 113.183636538284, "unit": "", "obs_status": "", "decimal": 2}, {"indicator": {"id": "SH.XPD.CHEX.PC.CD", "value": "Current health expenditure per capita (current US$)"}, "country": {"id": "ZH", "value": "Africa Eastern and Southern"}, "countryiso3code": "AFE", "date": "2011", "value": 118.269209627451, "unit": "", "obs_status": "", "decimal": 2}, {"indicator": {"id": "SH.XPD.CHEX.PC.CD", "value": "Current health expenditure per capita (current US$)"}, "country": {"id": "ZH", "value": "Africa Eastern and Southern"}, "countryiso3code": "AFE", "date": "2010", "value": 107.706700373281, "unit": "", "obs_status": "", "decimal": 2}, {"indicator": {"id": "SH.XPD.CHEX.PC.CD", "value": "Current health expenditure per capita (current US$)"}, "country": {"id": "ZH", "value": "Africa Eastern and Southern"}, "countryiso3code": "AFE", "date": "2009", "value": 92.8849192183075, "unit": "", "obs_status": "", "decimal": 2}, {"indicator": {"id": "SH.XPD.CHEX.PC.CD", "value": "Current health expenditure per capita (current US$)"}, "country": {"id": "ZH", "value": "Africa Eastern and Southern"}, "countryiso3code": "AFE", "date": "2008", "value": 88.9112883830699, "unit": "", "obs_status": "", "decimal": 2}, {"indicator": {"id": "SH.XPD.CHEX.PC.CD", "value": "Current health expenditure per capita (current US$)"}, "country": {"id": "ZH", "value": "Africa Eastern and Southern"}, "countryiso3code": "AFE", "date": "2007", "value": 86.5061591147478, "unit": "", "obs_status": "", "decimal": 2}, {"indicator": {"id": "SH.XPD.CHEX.PC.CD", "value": "Current health expenditure per capita (current US$)"}, "country": {"id": "ZH", "value": "Africa Eastern and Southern"}, "countryiso3code": "AFE", "date": "2006", "value": 77.2430242512696, "unit": "", "obs_status": "", "decimal": 2}, {"indicator": {"id": "SH.XPD.CHEX.PC.CD", "value": "Current health expenditure per capita (current US$)"}, "country": {"id": "ZH", "value": "Africa Eastern and Southern"}, "countryiso3code": "AFE", "date": "2005", "value": 70.4510470706749, "unit": "", "obs_status": "", "decimal": 2}, {"indicator": {"id": "SH.XPD.CHEX.PC.CD", "value": "Current health expenditure per capita (current US$)"}, "country": {"id": "ZH", "value": "Africa Eastern and Southern"}, "countryiso3code": "AFE", "date": "2004", "value": 63.5312755847611, "unit": "", "obs_status": "", "decimal": 2}, {"indicator": {"id": "SH.XPD.CHEX.PC.CD", "value": "Current health expenditure per capita (current US$)"}, "country": {"id": "ZH", "value": "Africa Eastern and Southern"}, "countryiso3code": "AFE", "date": "2003", "value": 51.5499795259039, "unit": "", "obs_status": "", "decimal": 2}, {"indicator": {"id": "SH.XPD.CHEX.PC.CD", "value": "Current health expenditure per capita (current US$)"}, "country": {"id": "ZH", "value": "Africa Eastern and Southern"}, "countryiso3code": "AFE", "date": "2002", "value": 35.9589620105148, "unit": "", "obs_status": "", "decimal": 2}, {"indicator": {"id": "SH.XPD.CHEX.PC.CD", "value": "Current health expenditure per capita (current US$)"}, "country": {"id": "ZH", "value": "Africa Eastern and Southern"}, "countryiso3code": "AFE", "date": "2001", "value": 38.9384708614462, "unit": "", "obs_status": "", "decimal": 2}, {"indicator": {"id": "SH.XPD.CHEX.PC.CD", "value": "Current health expenditure per capita (current US$)"}, "country": {"id": "ZH", "value": "Africa Eastern and Southern"}, "countryiso3code": "AFE", "date": "2000", "value": 44.1952489479237, "unit": "", "obs_status": "", "decimal": 2}, {"indicator": {"id": "SH.XPD.CHEX.PC.CD", "value": "Current health expenditure per capita (current US$)"}, "country": {"id": "ZH", "value": "Africa Eastern and Southern"}, "countryiso3code": "AFE", "date": "1999", "value": null, "unit": "", "obs_status": "", "decimal": 2}, {"indicator": {"id": "SH.XPD.CHEX.PC.CD", "value": "Current health expenditure per capita (current US$)"}, "country": {"id": "ZH", "value": "Africa Eastern and Southern"}, "countryiso3code": "AFE", "date": "1998", "value": null, "unit": "", "obs_status": "", "decimal": 2}, {"indicator": {"id": "SH.XPD.CHEX.PC.CD", "value": "Current health expenditure per capita (current US$)"}, "country": {"id": "ZH", "value": "Africa Eastern and Southern"}, "countryiso3code": "AFE", "date": "1997", "value": null, "unit": "", "obs_status": "", "decimal": 2}, {"indicator": {"id": "SH.XPD.CHEX.PC.CD", "value": "Current health expenditure per capita (current US$)"}, "country": {"id": "ZH", "value": "Africa Eastern and Southern"}, "countryiso3code": "AFE", "date": "1996", "value": null, "unit": "", "obs_status": "", "decimal": 2}, {"indicator": {"id": "SH.XPD.CHEX.PC.CD", "value": "Current health expenditure per capita (current US$)"}, "country": {"id": "ZH", "value": "Africa Eastern and Southern"}, "countryiso3code": "AFE", "date": "1995", "value": null, "unit": "", "obs_status": "", "decimal": 2}, {"indicator": {"id": "SH.XPD.CHEX.PC.CD", "value": "Current health expenditure per capita (current US$)"}, "country": {"id": "ZH", "value": "Africa Eastern and Southern"}, "countryiso3code": "AFE", "date": "1994", "value": null, "unit": "", "obs_status": "", "decimal": 2}, {"indicator": {"id": "SH.XPD.CHEX.PC.CD", "value": "Current health expenditure per capita (current US$)"}, "country": {"id": "ZH", "value": "Africa Eastern and Southern"}, "countryiso3code": "AFE", "date": "1993", "value": null, "unit": "", "obs_status": "", "decimal": 2}, {"indicator": {"id": "SH.XPD.CHEX.PC.CD", "value": "Current health expenditure per capita (current US$)"}, "country": {"id": "ZH", "value": "Africa Eastern and Southern"}, "countryiso3code": "AFE", "date": "1992", "value": null, "unit": "", "obs_status": "", "decimal": 2}, {"indicator": {"id": "SH.XPD.CHEX.PC.CD", "value": "Current health expenditure per capita (current US$)"}, "country": {"id": "ZH", "value": "Africa Eastern and Southern"}, "countryiso3code": "AFE", "date": "1991", "value": null, "unit": "", "obs_status": "", "decimal": 2}, {"indicator": {"id": "SH.XPD.CHEX.PC.CD", "value": "Current health expenditure per capita (current US$)"}, "country": {"id": "ZH", "value": "Africa Eastern and Southern"}, "countryiso3code": "AFE", "date": "1990", "value": null, "unit": "", "obs_status": "", "decimal": 2}, {"indicator": {"id": "SH.XPD.CHEX.PC.CD", "value": "Current health expenditure per capita (current US$)"}, "country": {"id": "ZH", "value": "Africa Eastern and Southern"}, "countryiso3code": "AFE", "date": "1989", "value": null, "unit": "", "obs_status": "", "decimal": 2}, {"indicator": {"id": "SH.XPD.CHEX.PC.CD", "value": "Current health expenditure per capita (current US$)"}, "country": {"id": "ZH", "value": "Africa Eastern and Southern"}, "countryiso3code": "AFE", "date": "1988", "value": null, "unit": "", "obs_status": "", "decimal": 2}, {"indicator": {"id": "SH.XPD.CHEX.PC.CD", "value": "Current health expenditure per capita (current US$)"}, "country": {"id": "ZH", "value": "Africa Eastern and Southern"}, "countryiso3code": "AFE", "date": "1987", "value": null, "unit": "", "obs_status": "", "decimal": 2}, {"indicator": {"id": "SH.XPD.CHEX.PC.CD", "value": "Current health expenditure per capita (current US$)"}, "country": {"id": "ZH", "value": "Africa Eastern and Southern"}, "countryiso3code": "AFE", "date": "1986", "value": null, "unit": "", "obs_status": "", "decimal": 2}, {"indicator": {"id": "SH.XPD.CHEX.PC.CD", "value": "Current health expenditure per capita (current US$)"}, "country": {"id": "ZH", "value": "Africa Eastern and Southern"}, "countryiso3code": "AFE", "date": "1985", "value": null, "unit": "", "obs_status": "", "decimal": 2}, {"indicator": {"id": "SH.XPD.CHEX.PC.CD", "value": "Current health expenditure per capita (current US$)"}, "country": {"id": "ZH", "value": "Africa Eastern and Southern"}, "countryiso3code": "AFE", "date": "1984", "value": null, "unit": "", "obs_status": "", "decimal": 2}, {"indicator": {"id": "SH.XPD.CHEX.PC.CD", "value": "Current health expenditure per capita (current US$)"}, "country": {"id": "ZH", "value": "Africa Eastern and Southern"}, "countryiso3code": "AFE", "date": "1983", "value": null, "unit": "", "obs_status": "", "decimal": 2}, {"indicator": {"id": "SH.XPD.CHEX.PC.CD", "value": "Current health expenditure per capita (current US$)"}, "country": {"id": "ZH", "value": "Africa Eastern and Southern"}, "countryiso3code": "AFE", "date": "1982", "value": null, "unit": "", "obs_status": "", "decimal": 2}, {"indicator": {"id": "SH.XPD.CHEX.PC.CD", "value": "Current health expenditure per capita (current US$)"}, "country": {"id": "ZH", "value": "Africa Eastern and Southern"}, "countryiso3code": "AFE", "date": "1981", "value": null, "unit": "", "obs_status": "", "decimal": 2}, {"indicator": {"id": "SH.XPD.CHEX.PC.CD", "value": "Current health expenditure per capita (current US$)"}, "country": {"id": "ZH", "value": "Africa Eastern and Southern"}, "countryiso3code": "AFE", "date": "1980", "value": null, "unit": "", "obs_status": "", "decimal": 2}, {"indicator": {"id": "SH.XPD.CHEX.PC.CD", "value": "Current health expenditure per capita (current US$)"}, "country": {"id": "ZH", "value": "Africa Eastern and Southern"}, "countryiso3code": "AFE", "date": "1979", "value": null, "unit": "", "obs_status": "", "decimal": 2}, {"indicator": {"id": "SH.XPD.CHEX.PC.CD", "value": "Current health expenditure per capita (current US$)"}, "country": {"id": "ZH", "value": "Africa Eastern and Southern"}, "countryiso3code": "AFE", "date": "1978", "value": null, "unit": "", "obs_status": "", "decimal": 2}, {"indicator": {"id": "SH.XPD.CHEX.PC.CD", "value": "Current health expenditure per capita (current US$)"}, "country": {"id": "ZH", "value": "Africa Eastern and Southern"}, "countryiso3code": "AFE", "date": "1977", "value": null, "unit": "", "obs_status": "", "decimal": 2}, {"indicator": {"id": "SH.XPD.CHEX.PC.CD", "value": "Current health expenditure per capita (current US$)"}, "country": {"id": "ZH", "value": "Africa Eastern and Southern"}, "countryiso3code": "AFE", "date": "1976", "value": null, "unit": "", "obs_status": "", "decimal": 2}, {"indicator": {"id": "SH.XPD.CHEX.PC.CD", "value": "Current health expenditure per capita (current US$)"}, "country": {"id": "ZH", "value": "Africa Eastern and Southern"}, "countryiso3code": "AFE", "date": "1975", "value": null, "unit": "", "obs_status": "", "decimal": 2}, {"indicator": {"id": "SH.XPD.CHEX.PC.CD", "value": "Current health expenditure per capita (current US$)"}, "country": {"id": "ZH", "value": "Africa Eastern and Southern"}, "countryiso3code": "AFE", "date": "1974", "value": null, "unit": "", "obs_status": "", "decimal": 2}, {"indicator": {"id": "SH.XPD.CHEX.PC.CD", "value": "Current health expenditure per capita (current US$)"}, "country": {"id": "ZH", "value": "Africa Eastern and Southern"}, "countryiso3code": "AFE", "date": "1973", "value": null, "unit": "", "obs_status": "", "decimal": 2}, {"indicator": {"id": "SH.XPD.CHEX.PC.CD", "value": "Current health expenditure per capita (current US$)"}, "country": {"id": "ZH", "value": "Africa Eastern and Southern"}, "countryiso3code": "AFE", "date": "1972", "value": null, "unit": "", "obs_status": "", "decimal": 2}, {"indicator": {"id": "SH.XPD.CHEX.PC.CD", "value": "Current health expenditure per capita (current US$)"}, "country": {"id": "ZH", "value": "Africa Eastern and Southern"}, "countryiso3code": "AFE", "date": "1971", "value": null, "unit": "", "obs_status": "", "decimal": 2}]]