[{"page": 1, "pages": 325, "per_page": 50, "total": 16226, "sourceid": "2", "sourcename": "World Development Indicators", "lastupdated": "2022-02-15"}, [{"indicator": {"id": "NY.GDP.MKTP.CD", "value": "GDP (current US$)"}, "country": {"id": "ZH", "value": "Africa Eastern and Southern"}, "countryiso3code": "AFE", "date": "2020", "value": 920792331527.746, "unit": "", "obs_status": "", "decimal": 0}, {"indicator": {"id": "NY.GDP.MKTP.CD", "value": "GDP (current US$)"}, "country": {"id": "ZH", "value": "Africa Eastern and Southern"}, "countryiso3code": "AFE", "date": "2019", "value": 1009909855421.84, "unit": "", "obs_status": "", "decimal": 0}, {"indicator": {"id": "NY.GDP.MKTP.CD", "value": "GDP (current US$)"}, "country": {"id": "ZH", "value": "Africa Eastern and Southern"}, "countryiso3code": "AFE", "date": "2018", "value": 1012853224905.79, "unit": "", "obs_status": "", "decimal": 0}, {"indicator": {"id": "NY.GDP.MKTP.CD", "value": "GDP (current US$)"}, "country": {"id": "ZH", "value": "Africa Eastern and Southern"}, "countryiso3code": "AFE", "date": "2017", "value": 985355704660.083, "unit": "", "obs_status": "", "decimal": 0}, {"indicator": {"id": "NY.GDP.MKTP.CD", "value": "GDP (current US$)"}, "country": {"id": "ZH", "value": "Africa Eastern and Southern"}, "countryiso3code": "AFE", "date": "2016", "value": 873354876607.317, "unit": "", "obs_status": "", "decimal": 0}, {"indicator": {"id": "NY.GDP.MKTP.CD", "value": "GDP (current US$)"}, "country": {"id": "ZH", "value": "Africa Eastern and Southern"}, "countryiso3code": "AFE", "date": "2015", "value": 919930022724.422, "unit": "", "obs_status": "", "decimal": 0}, {"indicator": {"id": "NY.GDP.MKTP.CD", "value": "GDP (current US$)"}, "country": {"id": "ZH", "value": "Africa Eastern and Southern"}, "countryiso3code": "AFE", "date": "2014", "value": 984807065632.553, "unit": "", "obs_status": "", "decimal": 0}, {"indicator": {"id": "NY.GDP.MKTP.CD", "value": "GDP (current US$)"}, "country": {"id": "ZH", "value": "Africa Eastern and Southern"}, "countryiso3code": "AFE", "date": "2013", "value": 964242449960.242, "unit": "", "obs_status": "", "decimal": 0}, {"indicator": {"id": "NY.GDP.MKTP.CD", "value": "GDP (current US$)"}, "country": {"id": "ZH", "value": "Africa Eastern and Southern"}, "countryiso3code": "AFE", "date": "2012", "value": 950521438838.682, "unit": "", "obs_status": "", "decimal": 0}, {"indicator": {"id": "NY.GDP.MKTP.CD", "value": "GDP (current US$)"}, "country": {"id": "ZH", "value": "Africa Eastern and Southern"}, "countryiso3code": "AFE", "date": "2011", "value": 943378184761.64, "unit": "", "obs_status": "", "decimal": 0}, {"indicator": {"id": "NY.GDP.MKTP.CD", "value": "GDP (current US$)"}, "country": {"id": "ZH", "value": "Africa Eastern and Southern"}, "countryiso3code": "AFE", "date": "2010", "value": 847409491176.197, "unit": "", "obs_status": "", "decimal": 0}, {"indicator": {"id": "NY.GDP.MKTP.CD", "value": "GDP (current US$)"}, "country": {"id": "ZH", "value": "Africa Eastern and Southern"}, "countryiso3code": "AFE", "date": "2009", "value": 712557951490.059, "unit": "", "obs_status": "", "decimal": 0}, {"indicator": {"id": "NY.GDP.MKTP.CD", "value": "GDP (current US$)"}, "country": {"id": "ZH", "value": "Africa Eastern and Southern"}, "countryiso3code": "AFE", "date": "2008", "value": 708354291357.645, "unit": "", "obs_status": "", "decimal": 0}, {"indicator": {"id": "NY.GDP.MKTP.CD", "value": "GDP (current US$)"}, "country": {"id": "ZH", "value": "Africa Eastern and Southern"}, "countryiso3code": "AFE", "date": "2007", "value": 661242216575.303, "unit": "", "obs_status": "", "decimal": 0}, {"indicator": {"id": "NY.GDP.MKTP.CD", "value": "GDP (current US$)"}, "country": {"id": "ZH", "value": "Africa Eastern and Southern"}, "countryiso3code": "AFE", "date": "2006", "value": 575976209979.202, "unit": "", "obs_status": "", "decimal": 0}, {"indicator": {"id": "NY.GDP.MKTP.CD", "value": "GDP (current US$)"}, "country": {"id": "ZH", "value": "Africa Eastern and Southern"}, "countryiso3code": "AFE", "date": "2005", "value": 512259874365.035, "unit": "", "obs_status": "", "decimal": 0}, {"indicator": {"id": "NY.GDP.MKTP.CD", "value": "GDP (current US$)"}, "country": {"id": "ZH", "value": "Africa Eastern and Southern"}, "countryiso3code": "AFE", "date": "2004", "value": 438875574172.163, "unit": "", "obs_status": "", "decimal": 0}, {"indicator": {"id": "NY.GDP.MKTP.CD", "value": "GDP (current US$)"}, "country": {"id": "ZH", "value": "Africa Eastern and Southern"}, "countryiso3code": "AFE", "date": "2003", "value": 352692089583.594, "unit": "", "obs_status": "", "decimal": 0}, {"indicator": {"id": "NY.GDP.MKTP.CD", "value": "GDP (current US$)"}, "country": {"id": "ZH", "value": "Africa Eastern and Southern"}, "countryiso3code": "AFE", "date": "2002", "value": 264895032411.725, "unit": "", "obs_status": "", "decimal": 0}, {"indicator": {"id": "NY.GDP.MKTP.CD", "value": "GDP (current US$)"}, "country": {"id": "ZH", "value": "Africa Eastern and Southern"}, "countryiso3code": "AFE", "date": "2001", "value": 258843211433.203, "unit": "", "obs_status": "", "decimal": 0}, {"indicator": {"id": "NY.GDP.MKTP.CD", "value": "GDP (current US$)"}, "country": {"id": "ZH", "value": "Africa Eastern and Southern"}, "countryiso3code": "AFE", "date": "2000", "value": 283952504751.698, "unit": "", "obs_status": "", "decimal": 0}, {"indicator": {"id": "NY.GDP.MKTP.CD", "value": "GDP (current US$)"}, "country": {"id": "ZH", "value": "Africa Eastern and Southern"}, "countryiso3code": "AFE", "date": "1999", "value": 262197179765.274, "unit": "", "obs_status": "", "decimal": 0}, {"indicator": {"id": "NY.GDP.MKTP.CD", "value": "GDP (current US$)"}, "country": {"id": "ZH", "value": "Africa Eastern and Southern"}, "countryiso3code": "AFE", "date": "1998", "value": 265837711929.972, "unit": "", "obs_status": "", "decimal": 0}, {"indicator": {"id": "NY.GDP.MKTP.CD", "value": "GDP (current US$)"}, "country": {"id": "ZH", "value": "Africa Eastern and Southern"}, "countryiso3code": "AFE", "date": "1997", "value": 282213512990.631, "unit": "", "obs_status": "", "decimal": 0}, {"indicator": {"id": "NY.GDP.MKTP.CD", "value": "GDP (current US$)"}, "country": {"id": "ZH", "value": "Africa Eastern and Southern"}, "countryiso3code": "AFE", "date": "1996", "value": 268440412907.73, "unit": "", "obs_status": "", "decimal": 0}, {"indicator": {"id": "NY.GDP.MKTP.CD", "value": "GDP (current US$)"}, "country": {"id": "ZH", "value": "Africa Eastern and Southern"}, "countryiso3code": "AFE", "date": "1995", "value": 269689336126.775, "unit": "", "obs_status": "", "decimal": 0}, {"indicator": {"id": "NY.GDP.MKTP.CD", "value": "GDP (current US$)"}, "country": {"id": "ZH", "value": "Africa Eastern and Southern"}, "countryiso3code": "AFE", "date": "1994", "value": 239088300074.374, "unit": "", "obs_status": "", "decimal": 0}, {"indicator": {"id": "NY.GDP.MKTP.CD", "value": "GDP (current US$)"}, "country": {"id": "ZH", "value": "Africa Eastern and Southern"}, "countryiso3code": "AFE", "date": "1993", "value": 234035169208.665, "unit": "", "obs_status": "", "decimal": 0}, {"indicator": {"id": "NY.GDP.MKTP.CD", "value": "GDP (current US$)"}, "country": {"id": "ZH", "value": "Africa Eastern and Southern"}, "countryiso3code": "AFE", "date": "1992", "value": 220218785937.895, "unit": "", "obs_status": "", "decimal": 0}, {"indicator": {"id": "NY.GDP.MKTP.CD", "value": "GDP (current US$)"}, "country": {"id": "ZH", "value": "Africa Eastern and Southern"}, "countryiso3code": "AFE", "date": "1991", "value": 220763711128.518, "unit": "", "obs_status": "", "decimal": 0}, {"indicator": {"id": "NY.GDP.MKTP.CD", "value": "GDP (current US$)"}, "country": {"id": "ZH", "value": "Africa Eastern and Southern"}, "countryiso3code": "AFE", "date": "1990", "value": 212336051488.558, "unit": "", "obs_status": "", "decimal": 0}, {"indicator": {"id": "NY.GDP.MKTP.CD", "value": "GDP (current US$)"}, "country": {"id": "ZH", "value": "Africa Eastern and Southern"}, "countryiso3code": "AFE", "date": "1989", "value": 194543353913.705, "unit": "", "obs_status": "", "decimal": 0}, {"indicator": {"id": "NY.GDP.MKTP.CD", "value": "GDP (current US$)"}, "country": {"id": "ZH", "value": "Africa Eastern and Southern"}, "countryiso3code": "AFE", "date": "1988", "value": 189003280051.478, "unit": "", "obs_status": "", "decimal": 0}, {"indicator": {"id": "NY.GDP.MKTP.CD", "value": "GDP (current US$)"}, "country": {"id": "ZH", "value": "Africa Eastern and Southern"}, "countryiso3code": "AFE", "date": "1987", "value": 179739456625.959, "unit": "", "obs_status": "", "decimal": 0}, {"indicator": {"id": "NY.GDP.MKTP.CD", "value": "GDP (current US$)"}, "country": {"id": "ZH", "value": "Africa Eastern and Southern"}, "countryiso3code": "AFE", "date": "1986", "value": 147025178146.934, "unit": "", "obs_status": "", "decimal": 0}, {"indicator": {"id": "NY.GDP.MKTP.CD", "value": "GDP (current US$)"}, "country": {"id": "ZH", "value": "Africa Eastern and Southern"}, "countryiso3code": "AFE", "date": "1985", "value": 130439822969.054, "unit": "", "obs_status": "", "decimal": 0}, {"indicator": {"id": "NY.GDP.MKTP.CD", "value": "GDP (current US$)"}, "country": {"id": "ZH", "value": "Africa Eastern and Southern"}, "countryiso3code": "AFE", "date": "1984", "value": 146021918891.396, "unit": "", "obs_status": "", "decimal": 0}, {"indicator": {"id": "NY.GDP.MKTP.CD", "value": "GDP (current US$)"}, "country": {"id": "ZH", "value": "Africa Eastern and Southern"}, "countryiso3code": "AFE", "date": "1983", "value": 159757514563.7, "unit": "", "obs_status": "", "decimal": 0}, {"indicator": {"id": "NY.GDP.MKTP.CD", "value": "GDP (current US$)"}, "country": {"id": "ZH", "value": "Africa Eastern and Southern"}, "countryiso3code": "AFE", "date": "1982", "value": 154669356787.555, "unit": "", "obs_status": "", "decimal": 0}, {"indicator": {"id": "NY.GDP.MKTP.CD", "value": "GDP (current US$)"}, "country": {"id": "ZH", "value": "Africa Eastern and Southern"}, "countryiso3code": "AFE", "date": "1981", "value": 160378053768.439, "unit": "", "obs_status": "", "decimal": 0}, {"indicator": {"id": "NY.GDP.MKTP.CD", "value": "GDP (current US$)"}, "country": {"id": "ZH", "value": "Africa Eastern and Southern"}, "countryiso3code": "AFE", "date": "1980", "value": 156512735720.642, "unit": "", "obs_status": "", "decimal": 0}, {"indicator": {"id": "NY.GDP.MKTP.CD", "value": "GDP (current US$)"}, "country": {"id": "ZH", "value": "Africa Eastern and Southern"}, "countryiso3code": "AFE", "date": "1979", "value": 124498228018.333, "unit": "", "obs_status": "", "decimal": 0}, {"indicator": {"id": "NY.GDP.MKTP.CD", "value": "GDP (current US$)"}, "country": {"id": "ZH", "value": "Africa Eastern and Southern"}, "countryiso3code": "AFE", "date": "1978", "value": 106346142736.477, "unit": "", "obs_status": "", "decimal": 0}, {"indicator": {"id": "NY.GDP.MKTP.CD", "value": "GDP (current US$)"}, "country": {"id": "ZH", "value": "Africa Eastern and Southern"}, "countryiso3code": "AFE", "date": "1977", "value": 94988948105.4857, "unit": "", "obs_status": "", "decimal": 0}, {"indicator": {"id": "NY.GDP.MKTP.CD", "value": "GDP (current US$)"}, "country": {"id": "ZH", "value": "Africa Eastern and Southern"}, "countryiso3code": "AFE", "date": "1976", "value": 83210426601.596, "unit": "", "obs_status": "", "decimal": 0}, {"indicator": {"id": "NY.GDP.MKTP.CD", "value": "GDP (current US$)"}, "country": {"id": "ZH", "value": "Africa Eastern and Southern"}, "countryiso3code": "AFE", "date": "1975", "value": 83435565922.8584, "unit": "", "obs_status": "", "decimal": 0}, {"indicator": {"id": "NY.GDP.MKTP.CD", "value": "GDP (current US$)"}, "country": {"id": "ZH", "value": "Africa Eastern and Southern"}, "countryiso3code": "AFE", "date": "1974", "value": 78250886611.1516, "unit": "", "obs_status": "", "decimal": 0}, {"indicator": {"id": "NY.GDP.MKTP.CD", "value": "GDP (current US$)"}, "country": {"id": "ZH", "value": "Africa Eastern and Southern"}, "countryiso3code": "AFE", "date": "1973", "value": 62983498804.5895, "unit": "", "obs_status": "", "decimal": 0}, {"indicator": {"id": "NY.GDP.MKTP.CD", "value": "GDP (current US$)"}, "country": {"id": "ZH", "value": "Africa Eastern and Southern"}, "countryiso3code": "AFE", "date": "1972", "value": 48301485013.5712, "unit": "", "obs_status": "", "decimal": 0}, {"indicator": {"id": "NY.GDP.MKTP.CD", "value": "GDP (current US$)"}, "country": {"id": "ZH", "value": "Africa Eastern and Southern"}, "countryiso3code": "AFE", "date": "1971", "value": 44476662702.8768, "unit": "", "obs_status": "", "decimal": 0}]]