[{"page": 1, "pages": 325, "per_page": 50, "total": 16226, "sourceid": "2", "sourcename": "World Development Indicators", "lastupdated": "2022-02-15"}, [{"indicator": {"id": "SH.XPD.OOPC.PC.CD", "value": "Out-of-pocket expenditure per capita (current US$)"}, "country": {"id": "ZH", "value": "Africa Eastern and Southern"}, "countryiso3code": "AFE", "date": "2020", "value": null, "unit": "", "obs_status": "", "decimal": 2}, {"indicator": {"id": "SH.XPD.OOPC.PC.CD", "value": "Out-of-pocket expenditure per capita (current US$)"}, "country": {"id": "ZH", "value": "Africa Eastern and Southern"}, "countryiso3code": "AFE", "date": "2019", "value": 15.1223286181133, "unit": "", "obs_status": "", "decimal": 2}, {"indicator": {"id": "SH.XPD.OOPC.PC.CD", "value": "Out-of-pocket expenditure per capita (current US$)"}, "country": {"id": "ZH", "value": "Africa Eastern and Southern"}, "countryiso3code": "AFE", "date": "2018", "value": 15.6254645522827, "unit": "", "obs_status": "", "decimal": 2}, {"indicator": {"id": "SH.XPD.OOPC.PC.CD", "value": "Out-of-pocket expenditure per capita (current US$)"}, "country": {"id": "ZH", "value": "Africa Eastern and Southern"}, "countryiso3code": "AFE", "date": "2017", "value": 22.2114458409749, "unit": "", "obs_status": "", "decimal": 2}, {"indicator": {"id": "SH.XPD.OOPC.PC.CD", "value": "Out-of-pocket expenditure per capita (current US$)"}, "country": {"id": "ZH", "value": "Africa Eastern and Southern"}, "countryiso3code": "AFE", "date": "2016", "value": 20.7003575727969, "unit": "", "obs_status": "", "decimal": 2}, {"indicator": {"id": "SH.XPD.OOPC.PC.CD", "value": "Out-of-pocket expenditure per capita (current US$)"}, "country": {"id": "ZH", "value": "Africa Eastern and Southern"}, "countryiso3code": "AFE", "date": "2015", "value": 20.1475589872678, "unit": "", "obs_status": "", "decimal": 2}, {"indicator": {"id": "SH.XPD.OOPC.PC.CD", "value": "Out-of-pocket expenditure per capita (current US$)"}, "country": {"id": "ZH", "value": "Africa Eastern and Southern"}, "countryiso3code": "AFE", "date": "2014", "value": 19.721417903157, "unit": "", "obs_status": "", "decimal": 2}, {"indicator": {"id": "SH.XPD.OOPC.PC.CD", "value": "Out-of-pocket expenditure per capita (current US$)"}, "country": {"id": "ZH", "value": "Africa Eastern and Southern"}, "countryiso3code": "AFE", "date": "2013", "value": 22.1145349665344, "unit": "", "obs_status": "", "decimal": 2}, {"indicator": {"id": "SH.XPD.OOPC.PC.CD", "value": "Out-of-pocket expenditure per capita (current US$)"}, "country": {"id": "ZH", "value": "Africa Eastern and Southern"}, "countryiso3code": "AFE", "date": "2012", "value": 20.0138796635504, "unit": "", "obs_status": "", "decimal": 2}, {"indicator": {"id": "SH.XPD.OOPC.PC.CD", "value": "Out-of-pocket expenditure per capita (current US$)"}, "country": {"id": "ZH", "value": "Africa Eastern and Southern"}, "countryiso3code": "AFE", "date": "2011", "value": 21.3074679878652, "unit": "", "obs_status": "", "decimal": 2}, {"indicator": {"id": "SH.XPD.OOPC.PC.CD", "value": "Out-of-pocket expenditure per capita (current US$)"}, "country": {"id": "ZH", "value": "Africa Eastern and Southern"}, "countryiso3code": "AFE", "date": "2010", "value": 18.9204119918962, "unit": "", "obs_status": "", "decimal": 2}, {"indicator": {"id": "SH.XPD.OOPC.PC.CD", "value": "Out-of-pocket expenditure per capita (current US$)"}, "country": {"id": "ZH", "value": "Africa Eastern and Southern"}, "countryiso3code": "AFE", "date": "2009", "value": 16.8374537346308, "unit": "", "obs_status": "", "decimal": 2}, {"indicator": {"id": "SH.XPD.OOPC.PC.CD", "value": "Out-of-pocket expenditure per capita (current US$)"}, "country": {"id": "ZH", "value": "Africa Eastern and Southern"}, "countryiso3code": "AFE", "date": "2008", "value": 18.3872842191156, "unit": "", "obs_status": "", "decimal": 2}, {"indicator": {"id": "SH.XPD.OOPC.PC.CD", "value": "Out-of-pocket expenditure per capita (current US$)"}, "country": {"id": "ZH", "value": "Africa Eastern and Southern"}, "countryiso3code": "AFE", "date": "2007", "value": 17.7028931443645, "unit": "", "obs_status": "", "decimal": 2}, {"indicator": {"id": "SH.XPD.OOPC.PC.CD", "value": "Out-of-pocket expenditure per capita (current US$)"}, "country": {"id": "ZH", "value": "Africa Eastern and Southern"}, "countryiso3code": "AFE", "date": "2006", "value": 15.4387361002804, "unit": "", "obs_status": "", "decimal": 2}, {"indicator": {"id": "SH.XPD.OOPC.PC.CD", "value": "Out-of-pocket expenditure per capita (current US$)"}, "country": {"id": "ZH", "value": "Africa Eastern and Southern"}, "countryiso3code": "AFE", "date": "2005", "value": 13.8814496862508, "unit": "", "obs_status": "", "decimal": 2}, {"indicator": {"id": "SH.XPD.OOPC.PC.CD", "value": "Out-of-pocket expenditure per capita (current US$)"}, "country": {"id": "ZH", "value": "Africa Eastern and Southern"}, "countryiso3code": "AFE", "date": "2004", "value": 12.4903411486394, "unit": "", "obs_status": "", "decimal": 2}, {"indicator": {"id": "SH.XPD.OOPC.PC.CD", "value": "Out-of-pocket expenditure per capita (current US$)"}, "country": {"id": "ZH", "value": "Africa Eastern and Southern"}, "countryiso3code": "AFE", "date": "2003", "value": 10.6449943188473, "unit": "", "obs_status": "", "decimal": 2}, {"indicator": {"id": "SH.XPD.OOPC.PC.CD", "value": "Out-of-pocket expenditure per capita (current US$)"}, "country": {"id": "ZH", "value": "Africa Eastern and Southern"}, "countryiso3code": "AFE", "date": "2002", "value": 8.40563665347592, "unit": "", "obs_status": "", "decimal": 2}, {"indicator": {"id": "SH.XPD.OOPC.PC.CD", "value": "Out-of-pocket expenditure per capita (current US$)"}, "country": {"id": "ZH", "value": "Africa Eastern and Southern"}, "countryiso3code": "AFE", "date": "2001", "value": 8.85398361284843, "unit": "", "obs_status": "", "decimal": 2}, {"indicator": {"id": "SH.XPD.OOPC.PC.CD", "value": "Out-of-pocket expenditure per capita (current US$)"}, "country": {"id": "ZH", "value": "Africa Eastern and Southern"}, "countryiso3code": "AFE", "date": "2000", "value": 9.77190734238585, "unit": "", "obs_status": "", "decimal": 2}, {"indicator": {"id": "SH.XPD.OOPC.PC.CD", "value": "Out-of-pocket expenditure per capita (current US$)"}, "country": {"id": "ZH", "value": "Africa Eastern and Southern"}, "countryiso3code": "AFE", "date": "1999", "value": null, "unit": "", "obs_status": "", "decimal": 2}, {"indicator": {"id": "SH.XPD.OOPC.PC.CD", "value": "Out-of-pocket expenditure per capita (current US$)"}, "country": {"id": "ZH", "value": "Africa Eastern and Southern"}, "countryiso3code": "AFE", "date": "1998", "value": null, "unit": "", "obs_status": "", "decimal": 2}, {"indicator": {"id": "SH.XPD.OOPC.PC.CD", "value": "Out-of-pocket expenditure per capita (current US$)"}, "country": {"id": "ZH", "value": "Africa Eastern and Southern"}, "countryiso3code": "AFE", "date": "1997", "value": null, "unit": "", "obs_status": "", "decimal": 2}, {"indicator": {"id": "SH.XPD.OOPC.PC.CD", "value": "Out-of-pocket expenditure per capita (current US$)"}, "country": {"id": "ZH", "value": "Africa Eastern and Southern"}, "countryiso3code": "AFE", "date": "1996", "value": null, "unit": "", "obs_status": "", "decimal": 2}, {"indicator": {"id": "SH.XPD.OOPC.PC.CD", "value": "Out-of-pocket expenditure per capita (current US$)"}, "country": {"id": "ZH", "value": "Africa Eastern and Southern"}, "countryiso3code": "AFE", "date": "1995", "value": null, "unit": "", "obs_status": "", "decimal": 2}, {"indicator": {"id": "SH.XPD.OOPC.PC.CD", "value": "Out-of-pocket expenditure per capita (current US$)"}, "country": {"id": "ZH", "value": "Africa Eastern and Southern"}, "countryiso3code": "AFE", "date": "1994", "value": null, "unit": "", "obs_status": "", "decimal": 2}, {"indicator": {"id": "SH.XPD.OOPC.PC.CD", "value": "Out-of-pocket expenditure per capita (current US$)"}, "country": {"id": "ZH", "value": "Africa Eastern and Southern"}, "countryiso3code": "AFE", "date": "1993", "value": null, "unit": "", "obs_status": "", "decimal": 2}, {"indicator": {"id": "SH.XPD.OOPC.PC.CD", "value": "Out-of-pocket expenditure per capita (current US$)"}, "country": {"id": "ZH", "value": "Africa Eastern and Southern"}, "countryiso3code": "AFE", "date": "1992", "value": null, "unit": "", "obs_status": "", "decimal": 2}, {"indicator": {"id": "SH.XPD.OOPC.PC.CD", "value": "Out-of-pocket expenditure per capita (current US$)"}, "country": {"id": "ZH", "value": "Africa Eastern and Southern"}, "countryiso3code": "AFE", "date": "1991", "value": null, "unit": "", "obs_status": "", "decimal": 2}, {"indicator": {"id": "SH.XPD.OOPC.PC.CD", "value": "Out-of-pocket expenditure per capita (current US$)"}, "country": {"id": "ZH", "value": "Africa Eastern and Southern"}, "countryiso3code": "AFE", "date": "1990", "value": null, "unit": "", "obs_status": "", "decimal": 2}, {"indicator": {"id": "SH.XPD.OOPC.PC.CD", "value": "Out-of-pocket expenditure per capita (current US$)"}, "country": {"id": "ZH", "value": "Africa Eastern and Southern"}, "countryiso3code": "AFE", "date": "1989", "value": null, "unit": "", "obs_status": "", "decimal": 2}, {"indicator": {"id": "SH.XPD.OOPC.PC.CD", "value": "Out-of-pocket expenditure per capita (current US$)"}, "country": {"id": "ZH", "value": "Africa Eastern and Southern"}, "countryiso3code": "AFE", "date": "1988", "value": null, "unit": "", "obs_status": "", "decimal": 2}, {"indicator": {"id": "SH.XPD.OOPC.PC.CD", "value": "Out-of-pocket expenditure per capita (current US$)"}, "country": {"id": "ZH", "value": "Africa Eastern and Southern"}, "countryiso3code": "AFE", "date": "1987", "value": null, "unit": "", "obs_status": "", "decimal": 2}, {"indicator": {"id": "SH.XPD.OOPC.PC.CD", "value": "Out-of-pocket expenditure per capita (current US$)"}, "country": {"id": "ZH", "value": "Africa Eastern and Southern"}, "countryiso3code": "AFE", "date": "1986", "value": null, "unit": "", "obs_status": "", "decimal": 2}, {"indicator": {"id": "SH.XPD.OOPC.PC.CD", "value": "Out-of-pocket expenditure per capita (current US$)"}, "country": {"id": "ZH", "value": "Africa Eastern and Southern"}, "countryiso3code": "AFE", "date": "1985", "value": null, "unit": "", "obs_status": "", "decimal": 2}, {"indicator": {"id": "SH.XPD.OOPC.PC.CD", "value": "Out-of-pocket expenditure per capita (current US$)"}, "country": {"id": "ZH", "value": "Africa Eastern and Southern"}, "countryiso3code": "AFE", "date": "1984", "value": null, "unit": "", "obs_status": "", "decimal": 2}, {"indicator": {"id": "SH.XPD.OOPC.PC.CD", "value": "Out-of-pocket expenditure per capita (current US$)"}, "country": {"id": "ZH", "value": "Africa Eastern and Southern"}, "countryiso3code": "AFE", "date": "1983", "value": null, "unit": "", "obs_status": "", "decimal": 2}, {"indicator": {"id": "SH.XPD.OOPC.PC.CD", "value": "Out-of-pocket expenditure per capita (current US$)"}, "country": {"id": "ZH", "value": "Africa Eastern and Southern"}, "countryiso3code": "AFE", "date": "1982", "value": null, "unit": "", "obs_status": "", "decimal": 2}, {"indicator": {"id": "SH.XPD.OOPC.PC.CD", "value": "Out-of-pocket expenditure per capita (current US$)"}, "country": {"id": "ZH", "value": "Africa Eastern and Southern"}, "countryiso3code": "AFE", "date": "1981", "value": null, "unit": "", "obs_status": "", "decimal": 2}, {"indicator": {"id": "SH.XPD.OOPC.PC.CD", "value": "Out-of-pocket expenditure per capita (current US$)"}, "country": {"id": "ZH", "value": "Africa Eastern and Southern"}, "countryiso3code": "AFE", "date": "1980", "value": null, "unit": "", "obs_status": "", "decimal": 2}, {"indicator": {"id": "SH.XPD.OOPC.PC.CD", "value": "Out-of-pocket expenditure per capita (current US$)"}, "country": {"id": "ZH", "value": "Africa Eastern and Southern"}, "countryiso3code": "AFE", "date": "1979", "value": null, "unit": "", "obs_status": "", "decimal": 2}, {"indicator": {"id": "SH.XPD.OOPC.PC.CD", "value": "Out-of-pocket expenditure per capita (current US$)"}, "country": {"id": "ZH", "value": "Africa Eastern and Southern"}, "countryiso3code": "AFE", "date": "1978", "value": null, "unit": "", "obs_status": "", "decimal": 2}, {"indicator": {"id": "SH.XPD.OOPC.PC.CD", "value": "Out-of-pocket expenditure per capita (current US$)"}, "country": {"id": "ZH", "value": "Africa Eastern and Southern"}, "countryiso3code": "AFE", "date": "1977", "value": null, "unit": "", "obs_status": "", "decimal": 2}, {"indicator": {"id": "SH.XPD.OOPC.PC.CD", "value": "Out-of-pocket expenditure per capita (current US$)"}, "country": {"id": "ZH", "value": "Africa Eastern and Southern"}, "countryiso3code": "AFE", "date": "1976", "value": null, "unit": "", "obs_status": "", "decimal": 2}, {"indicator": {"id": "SH.XPD.OOPC.PC.CD", "value": "Out-of-pocket expenditure per capita (current US$)"}, "country": {"id": "ZH", "value": "Africa Eastern and Southern"}, "countryiso3code": "AFE", "date": "1975", "value": null, "unit": "", "obs_status": "", "decimal": 2}, {"indicator": {"id": "SH.XPD.OOPC.PC.CD", "value": "Out-of-pocket expenditure per capita (current US$)"}, "country": {"id": "ZH", "value": "Africa Eastern and Southern"}, "countryiso3code": "AFE", "date": "1974", "value": null, "unit": "", "obs_status": "", "decimal": 2}, {"indicator": {"id": "SH.XPD.OOPC.PC.CD", "value": "Out-of-pocket expenditure per capita (current US$)"}, "country": {"id": "ZH", "value": "Africa Eastern and Southern"}, "countryiso3code": "AFE", "date": "1973", "value": null, "unit": "", "obs_status": "", "decimal": 2}, {"indicator": {"id": "SH.XPD.OOPC.PC.CD", "value": "Out-of-pocket expenditure per capita (current US$)"}, "country": {"id": "ZH", "value": "Africa Eastern and Southern"}, "countryiso3code": "AFE", "date": "1972", "value": null, "unit": "", "obs_status": "", "decimal": 2}, {"indicator": {"id": "SH.XPD.OOPC.PC.CD", "value": "Out-of-pocket expenditure per capita (current US$)"}, "country": {"id": "ZH", "value": "Africa Eastern and Southern"}, "countryiso3code": "AFE", "date": "1971", "value": null, "unit": "", "obs_status": "", "decimal": 2}]]