[{"page": 1, "pages": 325, "per_page": 50, "total": 16226, "sourceid": "2", "sourcename": "World Development Indicators", "lastupdated": "2022-02-15"}, [{"indicator": {"id": "SH.MED.PHYS.ZS", "value": "Physicians (per 1,000 people)"}, "country": {"id": "ZH", "value": "Africa Eastern and Southern"}, "countryiso3code": "AFE", "date": "2020", "value": null, "unit": "", "obs_status": "", "decimal": 1}, {"indicator": {"id": "SH.MED.PHYS.ZS", "value": "Physicians (per 1,000 people)"}, "country": {"id": "ZH", "value": "Africa Eastern and Southern"}, "countryiso3code": "AFE", "date": "2019", "value": null, "unit": "", "obs_status": "", "decimal": 1}, {"indicator": {"id": "SH.MED.PHYS.ZS", "value": "Physicians (per 1,000 people)"}, "country": {"id": "ZH", "value": "Africa Eastern and Southern"}, "countryiso3code": "AFE", "date": "2018", "value": null, "unit": "", "obs_status": "", "decimal": 1}, {"indicator": {"id": "SH.MED.PHYS.ZS", "value": "Physicians (per 1,000 people)"}, "country": {"id": "ZH", "value": "Africa Eastern and Southern"}, "countryiso3code": "AFE", "date": "2017", "value": 0.191352014032712, "unit": "", "obs_status": "", "decimal": 1}, {"indicator": {"id": "SH.MED.PHYS.ZS", "value": "Physicians (per 1,000 people)"}, "country": {"id": "ZH", "value": "Africa Eastern and Southern"}, "countryiso3code": "AFE", "date": "2016", "value": null, "unit": "", "obs_status": "", "decimal": 1}, {"indicator": {"id": "SH.MED.PHYS.ZS", "value": "Physicians (per 1,000 people)"}, "country": {"id": "ZH", "value": "Africa Eastern and Southern"}, "countryiso3code": "AFE", "date": "2015", "value": null, "unit": "", "obs_status": "", "decimal": 1}, {"indicator": {"id": "SH.MED.PHYS.ZS", "value": "Physicians (per 1,000 people)"}, "country": {"id": "ZH", "value": "Africa Eastern and Southern"}, "countryiso3code": "AFE", "date": "2014", "value": null, "unit": "", "obs_status": "", "decimal": 1}, {"indicator": {"id": "SH.MED.PHYS.ZS", "value": "Physicians (per 1,000 people)"}, "country": {"id": "ZH", "value": "Africa Eastern and Southern"}, "countryiso3code": "AFE", "date": "2013", "value": null, "unit": "", "obs_status": "", "decimal": 1}, {"indicator": {"id": "SH.MED.PHYS.ZS", "value": "Physicians (per 1,000 people)"}, "country": {"id": "ZH", "value": "Africa Eastern and Southern"}, "countryiso3code": "AFE", "date": "2012", "value": null, "unit": "", "obs_status": "", "decimal": 1}, {"indicator": {"id": "SH.MED.PHYS.ZS", "value": "Physicians (per 1,000 people)"}, "country": {"id": "ZH", "value": "Africa Eastern and Southern"}, "countryiso3code": "AFE", "date": "2011", "value": null, "unit": "", "obs_status": "", "decimal": 1}, {"indicator": {"id": "SH.MED.PHYS.ZS", "value": "Physicians (per 1,000 people)"}, "country": {"id": "ZH", "value": "Africa Eastern and Southern"}, "countryiso3code": "AFE", "date": "2010", "value": 0.168834673260782, "unit": "", "obs_status": "", "decimal": 1}, {"indicator": {"id": "SH.MED.PHYS.ZS", "value": "Physicians (per 1,000 people)"}, "country": {"id": "ZH", "value": "Africa Eastern and Southern"}, "countryiso3code": "AFE", "date": "2009", "value": null, "unit": "", "obs_status": "", "decimal": 1}, {"indicator": {"id": "SH.MED.PHYS.ZS", "value": "Physicians (per 1,000 people)"}, "country": {"id": "ZH", "value": "Africa Eastern and Southern"}, "countryiso3code": "AFE", "date": "2008", "value": null, "unit": "", "obs_status": "", "decimal": 1}, {"indicator": {"id": "SH.MED.PHYS.ZS", "value": "Physicians (per 1,000 people)"}, "country": {"id": "ZH", "value": "Africa Eastern and Southern"}, "countryiso3code": "AFE", "date": "2007", "value": null, "unit": "", "obs_status": "", "decimal": 1}, {"indicator": {"id": "SH.MED.PHYS.ZS", "value": "Physicians (per 1,000 people)"}, "country": {"id": "ZH", "value": "Africa Eastern and Southern"}, "countryiso3code": "AFE", "date": "2006", "value": null, "unit": "", "obs_status": "", "decimal": 1}, {"indicator": {"id": "SH.MED.PHYS.ZS", "value": "Physicians (per 1,000 people)"}, "country": {"id": "ZH", "value": "Africa Eastern and Southern"}, "countryiso3code": "AFE", "date": "2005", "value": null, "unit": "", "obs_status": "", "decimal": 1}, {"indicator": {"id": "SH.MED.PHYS.ZS", "value": "Physicians (per 1,000 people)"}, "country": {"id": "ZH", "value": "Africa Eastern and Southern"}, "countryiso3code": "AFE", "date": "2004", "value": null, "unit": "", "obs_status": "", "decimal": 1}, {"indicator": {"id": "SH.MED.PHYS.ZS", "value": "Physicians (per 1,000 people)"}, "country": {"id": "ZH", "value": "Africa Eastern and Southern"}, "countryiso3code": "AFE", "date": "2003", "value": null, "unit": "", "obs_status": "", "decimal": 1}, {"indicator": {"id": "SH.MED.PHYS.ZS", "value": "Physicians (per 1,000 people)"}, "country": {"id": "ZH", "value": "Africa Eastern and Southern"}, "countryiso3code": "AFE", "date": "2002", "value": null, "unit": "", "obs_status": "", "decimal": 1}, {"indicator": {"id": "SH.MED.PHYS.ZS", "value": "Physicians (per 1,000 people)"}, "country": {"id": "ZH", "value": "Africa Eastern and Southern"}, "countryiso3code": "AFE", "date": "2001", "value": null, "unit": "", "obs_status": "", "decimal": 1}, {"indicator": {"id": "SH.MED.PHYS.ZS", "value": "Physicians (per 1,000 people)"}, "country": {"id": "ZH", "value": "Africa Eastern and Southern"}, "countryiso3code": "AFE", "date": "2000", "value": null, "unit": "", "obs_status": "", "decimal": 1}, {"indicator": {"id": "SH.MED.PHYS.ZS", "value": "Physicians (per 1,000 people)"}, "country": {"id": "ZH", "value": "Africa Eastern and Southern"}, "countryiso3code": "AFE", "date": "1999", "value": null, "unit": "", "obs_status": "", "decimal": 1}, {"indicator": {"id": "SH.MED.PHYS.ZS", "value": "Physicians (per 1,000 people)"}, "country": {"id": "ZH", "value": "Africa Eastern and Southern"}, "countryiso3code": "AFE", "date": "1998", "value": null, "unit": "", "obs_status": "", "decimal": 1}, {"indicator": {"id": "SH.MED.PHYS.ZS", "value": "Physicians (per 1,000 people)"}, "country": {"id": "ZH", "value": "Africa Eastern and Southern"}, "countryiso3code": "AFE", "date": "1997", "value": null, "unit": "", "obs_status": "", "decimal": 1}, {"indicator": {"id": "SH.MED.PHYS.ZS", "value": "Physicians (per 1,000 people)"}, "country": {"id": "ZH", "value": "Africa Eastern and Southern"}, "countryiso3code": "AFE", "date": "1996", "value": null, "unit": "", "obs_status": "", "decimal": 1}, {"indicator": {"id": "SH.MED.PHYS.ZS", "value": "Physicians (per 1,000 people)"}, "country": {"id": "ZH", "value": "Africa Eastern and Southern"}, "countryiso3code": "AFE", "date": "1995", "value": null, "unit": "", "obs_status": "", "decimal": 1}, {"indicator": {"id": "SH.MED.PHYS.ZS", "value": "Physicians (per 1,000 people)"}, "country": {"id": "ZH", "value": "Africa Eastern and Southern"}, "countryiso3code": "AFE", "date": "1994", "value": null, "unit": "", "obs_status": "", "decimal": 1}, {"indicator": {"id": "SH.MED.PHYS.ZS", "value": "Physicians (per 1,000 people)"}, "country": {"id": "ZH", "value": "Africa Eastern and Southern"}, "countryiso3code": "AFE", "date": "1993", "value": null, "unit": "", "obs_status": "", "decimal": 1}, {"indicator": {"id": "SH.MED.PHYS.ZS", "value": "Physicians (per 1,000 people)"}, "country": {"id": "ZH", "value": "Africa Eastern and Southern"}, "countryiso3code": "AFE", "date": "1992", "value": null, "unit": "", "obs_status": "", "decimal": 1}, {"indicator": {"id": "SH.MED.PHYS.ZS", "value": "Physicians (per 1,000 people)"}, "country": {"id": "ZH", "value": "Africa Eastern and Southern"}, "countryiso3code": "AFE", "date": "1991", "value": null, "unit": "", "obs_status": "", "decimal": 1}, {"indicator": {"id": "SH.MED.PHYS.ZS", "value": "Physicians (per 1,000 people)"}, "country": {"id": "ZH", "value": "Africa Eastern and Southern"}, "countryiso3code": "AFE", "date": "1990", "value": 0.154824169216028, "unit": "", "obs_status": "", "decimal": 1}, {"indicator": {"id": "SH.MED.PHYS.ZS", "value": "Physicians (per 1,000 people)"}, "country": {"id": "ZH", "value": "Africa Eastern and Southern"}, "countryiso3code": "AFE", "date": "1989", "value": null, "unit": "", "obs_status": "", "decimal": 1}, {"indicator": {"id": "SH.MED.PHYS.ZS", "value": "Physicians (per 1,000 people)"}, "country": {"id": "ZH", "value": "Africa Eastern and Southern"}, "countryiso3code": "AFE", "date": "1988", "value": null, "unit": "", "obs_status": "", "decimal": 1}, {"indicator": {"id": "SH.MED.PHYS.ZS", "value": "Physicians (per 1,000 people)"}, "country": {"id": "ZH", "value": "Africa Eastern and Southern"}, "countryiso3code": "AFE", "date": "1987", "value": null, "unit": "", "obs_status": "", "decimal": 1}, {"indicator": {"id": "SH.MED.PHYS.ZS", "value": "Physicians (per 1,000 people)"}, "country": {"id": "ZH", "value": "Africa Eastern and Southern"}, "countryiso3code": "AFE", "date": "1986", "value": null, "unit": "", "obs_status": "", "decimal": 1}, {"indicator": {"id": "SH.MED.PHYS.ZS", "value": "Physicians (per 1,000 people)"}, "country": {"id": "ZH", "value": "Africa Eastern and Southern"}, "countryiso3code": "AFE", "date": "1985", "value": null, "unit": "", "obs_status": "", "decimal": 1}, {"indicator": {"id": "SH.MED.PHYS.ZS", "value": "Physicians (per 1,000 people)"}, "country": {"id": "ZH", "value": "Africa Eastern and Southern"}, "countryiso3code": "AFE", "date": "1984", "value": null, "unit": "", "obs_status": "", "decimal": 1}, {"indicator": {"id": "SH.MED.PHYS.ZS", "value": "Physicians (per 1,000 people)"}, "country": {"id": "ZH", "value": "Africa Eastern and Southern"}, "countryiso3code": "AFE", "date": "1983", "value": null, "unit": "", "obs_status": "", "decimal": 1}, {"indicator": {"id": "SH.MED.PHYS.ZS", "value": "Physicians (per 1,000 people)"}, "country": {"id": "ZH", "value": "Africa Eastern and Southern"}, "countryiso3code": "AFE", "date": "1982", "value": null, "unit": "", "obs_status": "", "decimal": 1}, {"indicator": {"id": "SH.MED.PHYS.ZS", "value": "Physicians (per 1,000 people)"}, "country": {"id": "ZH", "value": "Africa Eastern and Southern"}, "countryiso3code": "AFE", "date": "1981", "value": null, "unit": "", "obs_status": "", "decimal": 1}, {"indicator": {"id": "SH.MED.PHYS.ZS", "value": "Physicians (per 1,000 people)"}, "country": {"id": "ZH", "value": "Africa Eastern and Southern"}, "countryiso3code": "AFE", "date": "1980", "value": null, "unit": "", "obs_status": "", "decimal": 1}, {"indicator": {"id": "SH.MED.PHYS.ZS", "value": "Physicians (per 1,000 people)"}, "country": {"id": "ZH", "value": "Africa Eastern and Southern"}, "countryiso3code": "AFE", "date": "1979", "value": null, "unit": "", "obs_status": "", "decimal": 1}, {"indicator": {"id": "SH.MED.PHYS.ZS", "value": "Physicians (per 1,000 people)"}, "country": {"id": "ZH", "value": "Africa Eastern and Southern"}, "countryiso3code": "AFE", "date": "1978", "value": null, "unit": "", "obs_status": "", "decimal": 1}, {"indicator": {"id": "SH.MED.PHYS.ZS", "value": "Physicians (per 1,000 people)"}, "country": {"id": "ZH", "value": "Africa Eastern and Southern"}, "countryiso3code": "AFE", "date": "1977", "value": null, "unit": "", "obs_status": "", "decimal": 1}, {"indicator": {"id": "SH.MED.PHYS.ZS", "value": "Physicians (per 1,000 people)"}, "country": {"id": "ZH", "value": "Africa Eastern and Southern"}, "countryiso3code": "AFE", "date": "1976", "value": null, "unit": "", "obs_status": "", "decimal": 1}, {"indicator": {"id": "SH.MED.PHYS.ZS", "value": "Physicians (per 1,000 people)"}, "country": {"id": "ZH", "value": "Africa Eastern and Southern"}, "countryiso3code": "AFE", "date": "1975", "value": null, "unit": "", "obs_status": "", "decimal": 1}, {"indicator": {"id": "SH.MED.PHYS.ZS", "value": "Physicians (per 1,000 people)"}, "country": {"id": "ZH", "value": "Africa Eastern and Southern"}, "countryiso3code": "AFE", "date": "1974", "value": null, "unit": "", "obs_status": "", "decimal": 1}, {"indicator": {"id": "SH.MED.PHYS.ZS", "value": "Physicians (per 1,000 people)"}, "country": {"id": "ZH", "value": "Africa Eastern and Southern"}, "countryiso3code": "AFE", "date": "1973", "value": null, "unit": "", "obs_status": "", "decimal": 1}, {"indicator": {"id": "SH.MED.PHYS.ZS", "value": "Physicians (per 1,000 people)"}, "country": {"id": "ZH", "value": "Africa Eastern and Southern"}, "countryiso3code": "AFE", "date": "1972", "value": null, "unit": "", "obs_status": "", "decimal": 1}, {"indicator": {"id": "SH.MED.PHYS.ZS", "value": "Physicians (per 1,000 people)"}, "country": {"id": "ZH", "value": "Africa Eastern and Southern"}, "countryiso3code": "AFE", "date": "1971", "value": null, "unit": "", "obs_status": "", "decimal": 1}]]